ed391413650955baba01e4db5ecf55ab
fccf268d870cf9a101fd1d2eb30155c5
159002b230f6a7239a419fdf2c4fd0bf
824173600db39732496dfb92d711f61b
88773c3f3c28f21e57680cf2c109cce0
f2938ddf493e173fed4aed15bffcf604
eaffe4cf10bf064439f1904ea0f28019
f82db8022e9ac7b1022064b3bea5a231
c8b1f81874a0c98e52372064ac59e662
f4ee565c611b5527eb250d2162829c9e
3aa5e2ebd6020bc6536919f9265146c5
83d8685d4c31d856a6b156807b664ab8
fa38cc7184d92b17dc250e8644aa0346
c514e1c7c09bc341f6a68e1e2363c620
e00732002a1f45c7f72b06fa4c84d43e
e5ecd4bada7244dfcb534b0e404a5916
b5f854d74883611804a306d9d53b5fb5
8cbf7190a18647c0b2a6aa57853da858
a228a91a0a50fb0e655dbf068eb25dc1
81fa9c5cc9310149efec7a49d04e3490
1ae2a2c1cf61ab761b8c9c91e250fe33
4cc57792a91956cf9492430bade80ca6
842d6e76108c81b3ec33493758022d83
67154acacad3b64d2e3413e033708eeb
ef7ac20481d646b9cf4d71f7ebd10675
d7fadaa2197f3d2390cc9e1fc960d295
bc9e5ab16a7cac1ba3cf42d62fef0ebe
a861393dea9ac9b0aba7264d5a2711c6
f4848e6b116ab9065797eda5c5007e3a
05e9c0c1d0ad141ee979c11301b7de35
9e74123c345ecbe7d764ceb515df56e4
83d23333c1eef6910f1bd664dfea2014
2597910052fb995bcb01973aefc8a550
d6a863214fd6b7e79939d586d22456cf
2609748d5f03d4113f2e984475067043
836386dff322daa65c876898a8f80453
c4297a43acb585c8ef9f5e89e3d9eec0
af8fe2937f978465667665cdb647fad4
87c8d493d07e5f2157a657886ca26ac9
74ee3b3d4f0b7c623efedff62935975d
b3dd9acca2b92ffc19052b585015cab0
9dec872474833a3b38e5ff2d3d2c53bc
9fea89baaf9f0e53d33d4f594b02a8b4
aea188026fc669b4b4e7d33ce3a367e0
5c9c8327a217c87f4a66c0504dbd2299
f1f9eecfc2971e22b9ab8cc322daff71
7c600a1044bd6ad33288794b3335df60
5ce49848320a55819e1fdfa049eefb0d
3545c3e30a1a187c8ad22c528d6bba7b
0030d4a0ec619228df5e4766bcf34308
63765742d96345036178307b3df6d69c
7813da230e6b3f66f02bb8f730f0472c
69f060309f3853c91c6c2ca6ab87f459
7c9567c01440933ff464ad36e8ad247d
fd5f9e15e39beb769893596a91acecba
0eb2034cd7adb24b22de55c6a7055326
0cffe4c77a32ef2469ed237f1c8b30f1
af6c3da14b6d8050f5cdb4bf8f0e3d41
cf31744dae32644f1b3b5416be306b47
d5156071cdb784be7ddb2a90d995553a
43f6fb8edc41996629c9bd0322bb8709
8c97bf469464638bea480261af616f02
30e7851624bc05cae20b5a1e07a4c4e8
610ee7b1b7f3070a12e5036b35906a68
e8cedad008342770154b0da1b1fc9543
67069a8dd2c0adc81f98907edbdbbb17
a4600f4a09ac373cab0f8462400df1f9
614eb3c607505add1de0f3b21d3cebe1
8907e40e1097c8d25ee2b4e54e7e4b25
d35d01ebf0df2662053be696d5414fbd
2d1a1a0fccca6a58b8108afe21f94bbc
5339fde04a2f7d48a38e4d64dad029e7
b2544346d79d9069168c7730317e4f97
c629b12adf552f5a6fe3faa49fd5285f
20449151afd7dd59525397dbe12d6207
6fba7b6a266dc2533cfe39ac9b56e65d
576c7a7b72a13d84bfac19defb2b44c1
7a0cf68c4a2e0b255b02792c4bcdcd56
6b727f6375adc71c92541c63548b7e62
20e024ab83177dd48d899fb137c90ebe
6a43d894ee2f09bf946b5e09c51300a7
c4fd058332981b643afe51d6bd737150
21c76f7182bd01b44be7c969e647e851
cccffa3046ecd011e0b92bb554d051d7
0a80eb125f072083dbfb25fc8ba1ab42
05e729d6f13a40edc74d6a45cdb2a718
545397fc8362688608de28bc62a86395
e4d0f7a0dddec8f8ff200de30da7fa63
fb2f4371ea2f104ed98e08413ec5ea8d
2508167f472c91b7b7cb77f2e41bb087
6c2ac0dcb49068f8680102cc4ee6e8b8
6ab40072e92e556508b8d52871d0ff49
030d9a4fdff256dfa44d61af6ff0f83a
1c4ef76e828c0676fd36def9cc65bfe6
c8a66dd87f8b5ce0cd9e80e045d8a238
418d9dbfb7a78a337873e573c0b220b4
cf50a2e25e753134a010c116fa587ad7
3218232b35bc97dc622180dfc7aeea17
8bd352bda12885115681c7b6d02b6885
cbaa00a08765ce79c721ec477902632d
1c59f65a301cb5fbf167072b8b4e2d50
5ccb07351ea66f3fc42cb9f2f2c65ae3
7d0cb6f3ac5d5a9520bb1fd74103e182
2b4abf9d0166e9faa72a5fe4474d682b
9941a4171f19630516347ae62dba2710
441316cc9d7af0e66e8e30b7a3679c72
9c2f6422847b5e68619541ddeae3361d
9bed4b926ac91a50aa85bb5a6ab08736
a73ea7adb161009bef09c2d4971c300b
6775c8a514d4e182deb7e0d07d3d53d4
e3ec0c02167d086ec7a425dca1c5e4c8
7c97746b87f398f7ae54f36faee4e299
096d1898316b2f61e4db6bdf1d4caef1
2bcc63cb766d6f9b64f136d5304cde8b
7ae494c9ffa3efd8400e179d050e0148
0d9430b648b6a1e86064ef0c1b711746
e279aab0069d93af3c0b0cb11e3fc107
24a731bdabacb539ee7ea50211d6abc8
51304b01252724e596a31f0e4ed1551d
63524a69b6c4fbe1f7b5c1e8af32d1b9
30d85c4f6895556ee32250d090742c57
680f490bae274d72f4787a30093ef807
200fd0701ac980257fb58518e1ddda65
8d1396256bd5bdba25062b5bf520e904
4862c6bf00d9ef2a86153b3aabe50134
4361434ef448da4fd2e48ddfe66a8fcd
08a9ac463d7c88c17853d1dda00240f2
423160c0861c2d4d610d941b0e37787c
1ea5ec72810cb5e18c9d7fdd5a45a77d
49a37b13654f0bf8d99dea3459319eb4
cc56eb849f39ac1fee2d62e59f5eed24
c1972445fb86db6ea846bd72696bc535
b61e770372c5b7a951704c450944cee0
50c19aded5faf2479a3a101c3d47e32f
dfcb9dcb21fe6bc6472f174f6629b157
b77baab8b926f9333ab8f381c914c014
0d54f9ef9d9291a503c509f352b327ee
26e3ee0e2cfa9b4de07d1c9c9557ee28
f7c8d94dc484a416a848e1f17fbbf967
96a632a58e31e0e8c9611bf3e0d367e0
45dde3e03b5dd44846414cc9ecdcdaf1
2bc3a15a2673649679ef9d235128ed9b
627a86a41696e38c3f3de2971700a75c
c16ed2681d3eacc2306ff2daa7c016fe
3d4c759b3b41cfc24b3dccf86baf1348
3177bdbeb2d6c612c582c9b72be89264
86f5de2cc83264237cb2fc110215bcdf
5bd87592a7688c8e9a994f2093b20597
48f039fe331e50fe37483d51ec61fca0
2f497b8d12b0e06f0c1daace7e42ad6d
813451e36fce784871d2b098436d0475
f15cfc5244f9b7e15fcb5c6cec719237
c3475bb4b6af1265db4f710f5b511512
b4b6b10d276af464c9e4cf8fbcda12e4
82088b37d26c28d5b28fec153d1103d1
6824a715ad73f777972c680105f74adb
282612f56cff829e06109725ee157bdb
a7e7ad56f17435cff76263225e0e7a8d
2287be7b33389b2a1527c53e863d26f8
19669a0302005d19974512f39a695b72
8756d9b6a1c80c587ba25e90c6eb5b8f
6c4a5fce422615131b127fbfef3f1836
2ef4b148a56979ff2fc9afd6339efdd8
74f27bac2096839a91b9fc9b3f254ac4
db4150b84a33a3d071a8f147ca421cc4
dab1dc376e5f95f25d81901b7e45a65a
3666118e84094a61527f920efff1c7fe
488ae052b9dd686a03144af3286baf5a
87e10357f1f6dbccf07040938f912958
90db628c7b5f823788871c2b88aeb055
39faaae09d74f2422533a67a993e05c9
a30dc2fd9a53f2657d5efada39c6e970
1529480d380f3ab91d95cb309daac3cd
93653fd3c8a7efb2d38f6920f67244bc
12e759d9840244cb038e3a0901055a25
c73e5feba04164f9768de0792524c384
e109959d8f2c80d0d47033051213f8c7
7c2815cc79cdc79cec16dfb213a50217
c8185319df78b525d819d34c18805196
34fd2f8a9d8144931d206530b71ef337
1f633f05aa9f9117ad06365faf352f1e
14a24a0076ad3a16316b1ff15da3dd61
0fee40ea0edee92c34d3c3a6b6157ba4
68b8875acb63cc4b947968484af06d85
99911e2ba0ce1fc9a66e9dc35d07794c
c4a71be5fcbb95c1ecc3f40bc6e187ac
7ef64a876c3f6de9693a0efc8a344d20
c47b32ff40b07401caac7fc8c556b77a
53f26d3d99e520cebbdf155ba00e88cb
40ac262df25ad201220035d329f52239
25e1c1ff711d4271904b0617cc040423
b4fca9ac28de12652c2296112db06357
54712a19474c8bc2e3c74974a5055335
8145be7c60f4faacbb4a10d9bbae66a4
88649bc1b235b56fb33807e0ff88ad8b
cf308aa94bb46996477e333d335540b3
de5252801e7e756a1110f8280c868898
c2a91e89ee54dcf34216ab750147a469
e3dd14e4329d6856573980f337474fdc
c01c9a011b263518ac19913b79bef37e
39a4d76f053ec4f470d9c00be34a8ac7
cc8653abdaad239b6cc9ce47ee286404
316b89da2c64a5ebb62cfb8153d740a5
b64eb07248a6fd7afc94bc9e39be1417
77ee09714537f314e890dfaaec0c7cc6
40cacd2030e2599e9fd9891d4acd06e1
ed4ca4a4ce6380deeb8183f895aab653
53c1b998c624240560826c50d3716816
23af51a7b37b28ead466644613f6d8a2
3933d686cadb14d65d30dbb8385c749a
2a5781a39cd9b71079ee626bee9fde65
813c4c83f4d91e3845690b5d89dd7615
abf942059cf51c6fb0570fbcdedb8431
7c67b6e137197f55da95fe9e89212dd9
48e2fa9b94ff5f2fee57ae5ad808d810
99f1e1d9792a4a73bf95ab80f86d2cfc
c28bcd6b8654313b5526a59c931c5b25
7aa492bdc424173481d531ae9d1ce024
2d478bc723f9c7b42397089a0e9a8fb4
ba9e89b5aa7211729433ca5506bdbf33
292fd6e434ed4381431839c28d1903a6
0a6e80e6c3597d62646f6d831d525bdf
1f24f6495f15f7ce2dd093f30977d16d
d08a4d5a0dfb7635f58e31b7745e020a
2dee71fd0c580882ca46ab3d3b5c3997
ae1040fea35433e446afa8b7966a6833
7a532e5c41fef39fc570759835df102b
f9c16760ae828efe54749e9a12d690c5
2d2c71c6c175222ff96ebd2a759f51a1
10c3b0fe5abe82ff4b31892184bdbbfe
853779f13b21beec07cfa21fea57736e
8bc1be851f9762ab22c91d9389d584a4
70eefc86e774132cfe0c9cc93d79456f
8a5b8bf8629055efe50558eb0709273f
1c631127b61acb4ccd627a9108f629c4
ed4d10236d153a00bd2500d9a4c16063
9485d648a1c725fccf648aab50ae257e
9292c09088fde2d08030dd6211e5403b
d361da994729afcd98e1b0bb9abe751c
6e69721c09d8b6d85b72a7a82308b8e7
44fe084b1d3125ac9f46855bb8515fd1
b755369c6439d4b88d645ca7ea082da7
e475c404ae94e6a97c131627d49de761
8e20b00e784fb3a1b2b59d329973c8ec
a36afca017da2eab6842cea6ed55ae90
4b973479e09875c2de4fcfe9793862ee
82223db0b4d6c578e0ca7774cddab69a
d505dd405944b97cff11b6b70c3abdb6
1e559f4618dbddc2b30f2da254f74d14
e2f9e19bfdf7784eeea8e2446a0694a4
aefcc045bc0489ac0b47068617c8bab1
1c11ff6698c80b4898565080a9634813
c085313f9cd7bcd3bba0273b0c45fe00
e15c5c5063474d79635d23aa12e84e59
686e680a495c2cfab8f9b31bad08bc25
6f3e3f56b73be588a213c90884252082
4abb14ad7ed3c9f22fed05d1fada21c4
e11191b9df63cba16d47acbc03a99f7c
c6382e39a8d98808f7105191438c2a13
8fb6792c78b23e19ce20aeb280290e58
a65f14e8e0b6bc075c3165521168d7b2
93b61c342aaf1262776d9c285a9ba665
c64ab2598485358c90487e4c5230e452
d5b4c41ceff2308f8f0e5a9e88344307
c168516f7e54d26a1e796deb473ef276
7a889ae21ece65f5fad69871fb5f6416
646079a660d411c108cb5763036585a1
70616f3873585d32db42e1dc2b788009
622cc343e2ec5b7409dceeb89ec519ce
c13e800bb247a5669b0fd4ce2ec26327
c790abc0f0d7fbb73c52a4f05142d476
0df09f8d9fcd74888755bfacc5c540aa
bd82174453cdd75f6ba581c39cf1f0e3
1d80e50feef97dc407f46ef493444237
9a018589d1d9dc2c950cf967baad9421
8e10ba658d5ee2ff6a09a230758bd4c1
0e5cfebd465dc0e4391ae83893335205
d5672b6e049dabee37c191d62aa8a00d
ace74ceec81040ebfca23b788ac7f767
d227199b8f3b41a6bd0b84aecbe6d2ef
bc297986add3adf1cb152f40ab810be9
9e8667a1fc139b2292d6fe1071792a03
73b1db0c329e04335f3b14a0fe0f3f8a
7bb0c2f6247212e47cdfe57824f3842a
4c84af141f895dbe249161aa1484a5fd
e1cfa8ef5f8a883876b561db465734b1
ad5750902b6b40bc207d0b2255a94d87
ac46a99de55e706bcf1f53c723615ff9
a32f14c233efb3b7180d6d7c5eaaaea1
a200cc29ae6ed9b712dfefbe343e0bb3
f1c057db1da02d4b3ce98a615afa9e00
ba290498b764067a569d4e817afdc796
69cc35f01c55132d48899a0a70d63861
2fbc4dde53c0519561dbb92911f921e8
710eafcfff4b5cf26404b7c2440fd6d2
4e519bd9ae7c2f3a4d3efdd5a621f1a0
1cfe0af4a91114b7b5609f9d9b14fadd
1e3452703f7dd3424f748407f379fb22
27fae60f946529629242194e47292799
56f8e7e6ccee435a641f2f3e52f3aa6d
8d28fbaca0133d45f051b245a6d3492e
02d471d7f772a23e534c097721dae832
9e9391c21dd1722fc7635dac713e8cb3
f52b585ae06a3fa8662318b1213deed8
7577e98d3248841e33da5e473bbfd190
9c7f438be4a6a0ae669e1baf38bfb1bf
37f5a4233de0b056161841f63c2ead03
208e87a8b65687db05df9eeeb2dee3e6
d696b99311bb6278c68e60a86379fd66
3e98f287e4c197adf4fafce8ecddc87c
d5f3209a24f1eaae89e1fa2320f5d5f7
cd92a7e3015505c54150bb9d5a542800
f0f94656d5fd78d5cf2f5b548fe3567b
2cc9602e0d4ecc964be66bd289f2940f
bc123b0e32b2780c3cc9f9ef5902ac07
c2e45e6f06fe5431407937337fb15dca
960663135de578c011091cc52467a712
d6f2e32dbfcd0599a766b84368a2e6b7
05ed0f78e470e8dc09ba73a8f7844585
9b689c535f854834ec4a036cb2050085
17c52e25db58975e68cc9c5cc5f594d1
335856e24617076974a5f402e62a972b
577a2f62ecc4e4914d9f1b807c150705
e015e6b73e1cb481701d2828330e9d74
078d3e3615731431d382ca6920b89c1b
f4f08b84ad580cd2c646c017ca69f893
3e9daa77eed0085ead5b81143198daca
dc8b968b0ffd77e912537e41f6b20ffe
85adc29d7571cce7973e9f2a69f85704
aff0e4e737751ddc4ecc8a0629644a40
e2b01baea0aa4a1657dbd50c8ebf573e
3135c575bd3c54a0ce22074f00baa4bd
ef607d35c1113d0d1122c4ccaba4c2e1
3b1469da6dea382176398d90888f5fcf
e1afb3c0d296dc070e72634a2ea2d03a
81ddf1265c2b8451d9a6f531a9dbbafa
f8604c6eff94f2f2f30f353122dd3c94
242fe5842f02d5757ad6227280c85c57
5ccf21df17e30330ad5c10a9dc4bd2de
0e6d16f1d1667e4e3dce1ab982843bdc
2685a502c6392c14444468413fa2f36c
616677efaf38131cef56479ac8ffec62
14063090e298fed99d64a3848210f00f
e9fe0b1665fd13e2fdfd0ec79732e7a0
6318eda157b3eef5fac6d3f45561abdb
c50830e0f67515aaa9086e31d05c5628
83f270a41998e95a522212ec2d8e371c
38e99755cb72f07864c930c0505eb0aa
a4136ec8645dee03c1b50413af60fd72
65303d1d7ad331ece9608547458b21ca
3c9e019cb99592b6750e2af11ecdc1b1
ce47d773fd6e5617fd29e6fa90e04046
1f62cea226db7bf6e03c939817ec76bc
bb974aa9815ae7c49cc7396dc32922a4
0eee04f758c10d54c94964792216386c
5653ff56074ffbf6ce5a01f0379f7b06
559c3c27dff81dd6c02b76e011026d96
82a5bb43bbf74bed91d747ec27a01a03
ac41d0a21df7be1c97599fe25b787fb7
356755ca129b62ff9bb1e0f3452c5c1a
e13774245d6312658843643cbc7d8054
881cb786dc2e64a84e0d70f2fe199a33
3c77ef956c6dd2fb207e163154e9f1fc
be1e481b06c5a291496e1173de0a12e9
74d9fc9a1fd26864e54a68638b6fb805
3788afe898d30e76287d8b1e49e99d3e
c55a215da6f3b985dccdc50dd7e01636
4d40b2474d0cc95399b6fc69a21cc9b8
48553f30a284a5fbf790bfa31809f274
0ff54acad2f055eedbeb3f866051c971
2d32423788ad821aa8124f70aef8f1f2
1b9d7eea60e15a7f423f068e09574740
7a22ba6b745277d8f0221f32ee5177cf
75d081447af0913bf9d1d9fb93184cd8
38e1ae89dda42c1aa85e64f528dc805b
27f8ddc0a3a6acf278ad8f0d7cf86393
1727aa8ea256f9f80936f4ca8417fb05
07b3bbcad0d4a4f55a3e78a59791fddb
1815d1812234d862467e6bbd27bac427
4539350f3d231eead435baa923e98b96
ff05ddee00501db4be328230aac4ec71
51a07dff7028f1bf5bc2587eff9e3b57
3b90ba3203e4a0e3e7ec5919646e79e6
ef0cd9196f5d8dfda3d1c68abdfdfea8
a06dda64fee324e120b0c34f17ead305
392287ef5e0209736690617a7b4f3fe6
6f7b7c165600a129c5825c8b96305f6a
0c7ea42ba0fa1379f3acd9e38165e870
6cc9fe03d13bdd852ad9d837fab41580
d6103ac7eb32e785baeee2ffbbdd1523
1c9832cfbd6789902d42d3ed9671f851
26e0f91dd74f0991d980283ef8fd0cea
cf859c81fe9f38a6f1d83d54af048761
7e1c2c9468e28db5c7b550864b01c60e
af0e48c4a1d81d82b170f945b71ef0b4
e70d50365b54441c75f4cc0cfd429def
9f3e5e2f9a90a2c42e07bf97e2ee7333
55ab36780ae3d71b051b846141a83af2
fadc6e7b88f23a3096de77b55307d4ce
fbceca580fdf6fe2b2189a069260e0ba
b898df5e5f69a4e0eb18fea738b9d8ae
3d5158fac3f9250d7ed92610de5b56ec
3efd216858f9129d2a4393d65409a3cc
e6c06b5eb7b0e1f0b9593a260924a909
3dd2a4705c6d8a75061183d4cac2fa2e
e32c09353364c64476b7c615700b89c6
1989541e3fdfe451dace4ec7b09d6425
9ef2261001db2c72313d471792c0f371
e55f483463f672edba9d948f72bf4cf0
5d97ccc0ce955ed64f59ce3a2dceb79f
7804c0b5dfd4fc2509713a89381cc203
5d2ec8cc43d14f9955c9dc65a49dff56
74e543e351e7bfb00a270b821bbfa8f2
59d0778689e9d78c58a179186a7aa118
bf2d18bcd78b6c2041151014f4906412
524ded22100998b282415ee6676c96b8
c51417d4c06ecdf2ddde2b5c973aa579
ae1bbc4e55e38722111b25d783566eb5
4b3623e43642dc37ffbf3793c56cd382
5dc862151ba70ebca71279ba73e3c311
3afdc903580a32a15fb393b545027c53
c3bd5834fdf8f1894b98cfa23c96905a
dc25d31d561257d529696fa46f48d0e5
0e170837e786c78c51cf40cfcb954acd
468869e58844986b1c3b5d4a6fe94154
6e137b7b773ebe9addeaa91afd79889a
04ae219697fe2ae93bbe2ddb06c00e84
0df0a3790e3755124b0383a82547ce6b
e9bc08e8f0108296a6118287bdd4c21b
722709f30df9d4c92959921379e8292e
310244f618504c509c7e9527a4642f4b
82f6fd087b45a13ace267f29b73af62d
dfd7ea1bb233a09e0c06a1ea641a3670
8a97e255da27a0b7f7d4a88b91401436
631a49df3971fd9f8c33348716100ece
b562359a0781837f268d836a446fb707
b01e9007cecaedbe1a6454c5b194d1ec
e9b6052ebce686bbdca9ec28eb88b10a
ff9277d5f0d0787a19ab86764291e4cf
2e712de8fc3eba18171d6554e0a2b475
df3639e346cd72e31a21ac6d05cdab31
9af97089cd90b12a470c287b1065dc43
5e385b9a926cc415daa2363dbde47d39
ce52b44266de010a2a88d0525c75adbd
186866734d83ddcbec0a6915b199590a
6aee29f32271ac0cf369157525ca36f1
d88ad7f19641c354854cf9aa364d4df9
b0edc2feb6e6fc964527cc9d3864823a
fada661f5ba8c3e2b206aa9eb38ad894
dca8bf5d363ae8c29c90556b214c9706
c21791e2f4a95c820ef5e9605617cf5c
5fed4ad79c0a6d58f0779e5e64d25da9
b4e1a2fbbca71a50bd816351300dc990
2b730db9ef0e9d0708a8cbc307826c2a
20705b5082c4592f6abc50fc70069ddb
bc0a6009a6cb930a6de3f02901aaf029
b0a6c5db04797f04c9b9d0b4a4fe6733
c37832e62be0f5b8796e207d2aa8776a
a23f510fda9f3664d0ae62e2b4ed1620
721c336cbd0058885f41066360cad1c6
cab151183827b2c4bd9946575fb803ed
ca9d7354f5cb5f2cc410eb956d29ecd7
05694c74e97398df1ffb1e9ac0e2eeba
1b6035c0d329baeab8884439a2a2f221
b83ae278bf8fed5167cbacfcd3a88916
cd08682d8984a02132f37a7b1b43ca14
efbaff9d8b1a6536eefd223da666e82a
64b9857489d439157906b55aca142fae
9d50bd078e549b62ba47a5017c2e6684
d83ee05b59895eb78d61912bb9b470f3
ccd07efa1f60cbbab917379af7a5b836
6dee7072efbf7d08b96fa25e01c1c54c
f147c87737a86b34f3b3392eec4b2ee4
eea539b96db9ac0dddc08553de48058f
1405cc64b78be7e6302cf07f68860217
496211deb56ecbbc824b643c28bfbee1
05aee50d3d2d5ed2ff2b6bd511a4e85b
277a13c333a6e540b2f4a97ef38ee3e9
beffc593f7e269f9a83879de64151eb0
dad0fa7a1fb699afc5246df7d7465ede
e1781bfe871939dcc9ef9a2f42586de7
d2c76afee25d31a9a5d7329be4696310
310232a2d617e9d4063615e85524683b
0e435585c786ac7152d0d83ec9ae2fb6
ea22b237ff83fd9f7c9490209d6737d7
304b5230597701bbdd5400abb3ca13cb
27a1aaa0a17991d23395d375a3675e3a
29785232a790ad0aaa2fecf645ad41b2
61f6fcd08d36e971c1a75d638341709a
e14b0b988af7f9342f09466fe469b2ad
b16f0747ef386b1a91d8b66238f29cd5
2b593067c28bb2b1537b50d0af0f1a8b
8ecc3b00b2b82c68b1d5cad3b7a719c6
653ab4436537cd5ba567ad8637a97d43
663a04258074c81d46367b39c60cb3aa
e173b398c8a831eaff9402bf61d97290
b22eed7f3c5225f276ec7dd4636ca548
9b76646d18362bae39886d579772a4f0
efc7b2a3cdf77a6d6e7c6c1fca7e397e
1c56087b6f6163c0dd9c1b15f016ee2b
558c89a9c29392f0fd862d9c519be7a2
08ead1c9965ffb8d073a27b710bf9c41
44a62490c98b11860d49aef478c824b4
ed2281532e07bc460a560dd0a9b38713
242599ef76b911d7928e1c6fd7452853
813ca517e1a2bfd3a723042a8f2ee1e2
0b45639b7458152e2cab2adbf5026fc2
fb674849961fe26dd921c1e602e4650c
f5cc44fd561d232d02c67e095ddaa26d
2c1a4a198c8288c66eededcc457248f8
666adcd667aad9cb0fe8fcfd3065aeb7
1eb9f516f1722784d0471f6768be122c
37ef38b0a3bb41f8622b5eb7c044c362
5245afe851e0b1ad70536cf05bacc056
53521ba286748db5fd9e67cb4e2c2c8d
f69322fc5347de1f13e6cb2863a20496
da259a9cb174cb8422b2f41c1dbc5949
fe4691808df49594501b65ff73926726
b78287b61e9da1db423f87981a649aac
2ed278a73643e08b0f184eb67c83a19c
7ad9d6a0f136e43a988c4c6d6fb3af33
41792d00f2cedb835ad180e0e4b54397
a7c6756839d600d6d4b778f0ad8a6710
f87a3848874ad54fb5047cbac8efd0b1
dc1cbb06c8f51c2a3751f4b936b16777
bcab171e179cac12d0b7a5de0234b599
4f631e2b9ee2ddab6e431397c1fd91a5
97e732024bbf947cd9020b5ec99bf12e
49b87e55dca38de2e2b222389c657077
b265684d0f4d9cb3e1131ad567cc1cc2
28e43c5b142870272f7711c2076b14de
93b5f3654801645601e628aff0219339
4ea441cc30093ba2f141a87a97fd4e53
5c72401f3c7c3c7e568090beff10aab3
bd764a0681e23ca2f9e444fbbe06b5d2
79bc3ef27eb43e0c3316794021e01926
8e71a22cbbe95a9224f68ba6f3f2f2d2
40a81f6dfa2106355b1a993498be4266
5db9657d6430ff1efb88a8f789fac2a8
aa19c878a46e301d02f4ac466dfad668
fc610dbcf842468be55cbfe5be60349a
954c356c87d1f1cc7c77c6302fcb92c7
3f67277950633d5eb939f8c03005c69b
c1c64539d2ca6d78b5b0e7c29382e742
11f63ccfb9b3cf84e5e49c881d7d0a65
03183ceba7ca42b43fdcc53a5925a9bf
d7e226d79e8a1ccdc7d33808e38696b8
3ed4f00fe73543a044753d8bc0000e48
074564c8a731589e5f33a7f521ad4c22
84d4432ca638a916209adcc35c40c5cc
c0fb89205b70996880b424170651bf03
312bfc8461df95859bcfb353b938ff8e
734a00eedd4a74c367972390fbc40b77
8a56774613e765550c72e15c7fd33b39
618205e9a297d78a8e2a0f82bf1d089a
90cf6b2f0cd4408454f36f47e796d0bc
96406ceb182d5f22f0f065db2dac6158
384707a5e8e8782b9420299dd32963d5
592ebefb99c6db4c609c83d041ff6b1a
aff468bbd5ba432c0f6464633778c2fc
f2767ec6cfcb754f31b08d0e3a591c0d
4f5e5fe2b97df158bfde4fa6ad5713b3
28043d4b9c7daa47470f3e48509a2174
208ffed65b9748d3a0b6f40c85d9ff6f
bdab45fca260bb5e208677e97154badb
36abfd0d6dd4e57b2b8e2e3cadc4a8d2
70ba3122ca0e3148bd782241c2b817a5
3bff85f7c6c7aa387c33ef179fff5e1a
720afe109b0d98c1201fd95e2fdb9076
1f9d175ee890ef13febaa20f501e983c
d30f21f4d91194b5d8c328cc2dd2c6b5
77233a12f04b286fc19b871c4efa443a
09d00df767ba3c3629fccb2a06bdc5c7
38efc1d53ad5f728d65f693c2950829d
d377f60708f3796c780b401cdf3a274b
d9b7cf3383104b4ca00e1abc9a312dd0
6d6e8af8477b27993d23818d8384a68d
ba567fd2fbf47110fc521921d1f42c75
05a84e62d87849d53da0ca3fd2100b9a
959694eda2548b6a39859b97f201879f
716418cd58071d96a3955127bf94191b
39aff1d81fe898deade6545b15a00e06
da14e495407816c82b13e7fcc9063a38
30fcd09843bb202bacc592b20eda6799
0db2eee0bcf8ad7560c9ff5f575c3ef9
83c718623a64c94dcf711656c1ecdf2e
8652c01955ae0f333aefee3a3cd84ec7
c8b14175e8d7e8626ed565c2f6dba37e
814950891822c92dee634fb709ef91e0
0506ef5406a083a0274f8848ac913a37
3e5d9bb86a44b62e636b0c38faa215b1
0510396c2912454c20231923f7d20c14
92277415a82275fb33bb01c2b30bfc9f
1b1db3db331ad5152995699ea2d85aee
969465470152f4de4b77f9878cc55754
c578b9a5b7d057c0749a94acff100da1
72691f78903101180a537052e18c5e75
7f4b597653db2e15bb2ac292788c2120
944984e859591673fba29bfa0bf6504d
714446c55334f26e2233f3fcae272768
31a8dbab1f54ac0800957738af7faf00
514dd089527b480006746ba1a59bbd40
25c343cb233a981c861e1d7db8688d54
bfaa791019459b15210ea1f134985358
9403b7923ff6f7e2db282f5c6fe848fe
d161fd98b7b31df3f33747d3b67e311d
90629a75ed2a9ff04c24667879ae9b94
1b3f5bb83b96257a6cdb3e62143524d1
40b2a2595fb3f4d17951409442e8dfda
31fe0298c6febcf08a74c89a585de93d
a7371b156766661a564793068bde03a4
45878e32e6af9aa194f983bafa860eb8
b301e1b2504c87a85b0d76b2ad710faf
ac074be18dd4ca0e80211443e8a40c0d
511a2882e6e59b293aaa89b5fb282b0e
31d7baaed14462b7c3c1c86f7f835188
b510b887b8f27ad2cecccf69c7b3e9eb
646c5c5a2e4e68bcf522044198354084
ef2fb89f65587fe334e5a2bdc5a77942
bae81859a00401a494d69a9d1df130ce
334605f7f2a266b1ba584fd6a8d23ac3
609a722f212e869453b8c52b7556a9a6
4dcce3cc506562a6c679360735ba0d45
dde3f9c68cb3fff38bf2b66213b14de1
d082f661dce8d486c98bd6acfcae8d0e
7df7382a59742c55a2b170b831407d39
7cc0626dbed5d5f2f116a34ab7690c31
d039227ca28064afe610dacfba047890
427056797dd15f7ce6f136f2eff09d7b
21db0ee17c8e777b55064baedd3812ee
6810c972d209c4f9e1ad4692cc4726a3
5bbb9f3b785e349ac27db46f21fff98a
cd6af5ebff0d63474ea7a0c2a7a1c26a
786470d972bebec7f9ea1fbe92bcda50
7faf398bf8d39ad75cc068b748e56dd4
e46c9988f0f43a0828f3ae0c9bc8fdb6
c66d56db1d9631cc60791707ac1516b9
92c1d725974f2a559ffdbc293776cc55
32532c480993031d8bc7778434dd9584
6968e2ce27301c91cb9cee870d43b0c6
6fd3cf34fab075a4bc48b6efc6c117d4
8c834c8b371a10e5e8fab9875d4504ac
cc082d466f39d7ccd83277f432857f8c
930f8aa0468b56dca43162373d7e5308
3c4e1694d68d86619a7597e8b2b32ef6
e232d03fa41df0531598d94f2cdee0e5
2f099fbc3051f723335920b182251bf4
57e0593313a571f89a5841853a1b91a4
26cc92d11b23d81aa32ae35cc00eb387
b09fe75dbafeda6069ef3ee6e93cd064
8c904557fdae0fc8f2787b6b5a7fa28d
b3aba17d1183cbd1144690ca1e2b9cb1
55219d4d13010644206f7912456e67f9
710458586b6b0e6a52899bd88ea552d4
0a618deacbc00896348895c96585265a
fd6f68547f9042c031502b4c8eb6e0fc
39e5c1456984d631c78475e0f192e17d
9a76fa582b928a142fee08a3ac7c4bcf
9e8e48770365304247fc17232662444f
c6ca74545a01ec933c115ae866ace8ec
cecacd6efbfea473c91abab16271afa9
c4bd3ab75c26744d8e179006c7f7bdba
20dc3b57427a2ee6265147e870a86487
80a958d4ffaef31155ae6d4756655c39
a39d30444d6d20c5f5a230a95ab6d045
d0ac39060d1b1598e2c0da2f6482d8be
b021a540f64218989b922f33f689db69
43518a793c6752b0f405fc77b27df4dc
83d06aeda3963fb1cd493e4999c0a071
7201db0c79bfd589092f3aacde3a3d7d
6189daed3ad8f80fec0e34eb304c3b64
52600b12312fe7ddfa53c381c3d347a4
c1b192c6f50e614ff84331e79f6dcd00
8004c7cd7e285db00115d4d2bf6bfe2b
e3c3aecc4108b5d9dcf8ab07d6e71ab3
a6ea6973dbbfca91b3ac3395f08c3150
69b368fd5bda6d493887546077255758
25b7de1e3d9d928fa57fb00e9217542a
28a60c95fabbb8221710694920e0655c
686841d2e06d49f1d5ee6200178e0931
241f17861ca8e4ec0d666ca1796f3741
ec943aa942ee2fcc72168deca80be15d
b528bade8f3ef09ed7de600fabc7f439
be75edc1df4bc53be53b99a2da52f0da
7f3f6cf9c0e964070d6a24d307aa9ac3
0dcd79b4e97e6f24791ab321423dba23
260310abc1b9c7fa7320bef1e11a5700
b5151c854078fc5e534d2108fde7d768
3eecb465cb70ef5e62b579c38ee5069d
1297b36f8fb0570b90d9da94538a6a3e
313f341b058c748e79a32d2271620f68
b05f4e340c4422f0ce89ff4eb87cea75
82a9241c31c35f59903261b0a504392b
a8506bbac847659961aca88a5e1da53e
48547ff420107ea6a6e4739339a8f94a
31cb1ba98bbe5be5cbe1a0feac7b16f7
6271afa0eab99adf884197cb10e87d79
25e0022fb0cc266093646d0fb7af7ea8
09b74a67e336312fbc15317fa2f1f936
fb05cb069bf41a9064c7b4b19df921a6
1436e2438f2efd96a9b81fdb1834e0e9
beca3cf898f146042560fa243222ce55
404dbe0ba8f9081445bce0fa960029cb
6a4dfb7123fc42da59cb616b96b6f9a9
e93cd33a7e1493ee9a250cdbaeed80ac
744d6825f4caf773070f2db1cdd39acc
3eff4229d7ea3094ce57c5c8c4a99b42
da30d22c9493f29907542ff18540778a
b33a248ecd5fa5468081bbf6904f18b6
b4676317efba64a1faf8f37f188e50c4
ecc76161fed2254e68f009970c782701
ffdfb2bafad9e31dea681ac0b557417f
219f9b4694ffc8063959910a9ee2f16d
df154b458667007c42746bd967061d7c
1efa3577565be63c27c6199899155d4b
1365d1a3f8ad18541e608b67a7e310bf
7a4aefa1533fb85098e74c44004738d4
fcad8d52cae273273e47efd7e6d396fd
c2e7428956250c13d7454a6b0112af5c
efccbc0c15f8b0349972a969f3612d38
ae7756b0feb0b08a8c3d88391f4aae0d
f183ff62c677e7cb128a93ef16ebb4b9
8c05af97282700dbce30731530a61d6e
a6d6b426d9cf1237e7f63d73c878ae32
e313f01687737b09f9e6482eed2b8328
f5f599af06fbe123ec355d93a1ac8c28
cee02fa842aaf7dfb21bc9de4548618a
078e8318a0a2beac317f4c5603d4756e
299acb546ce53bec617a97ceee787568
055cfea3b4165ba8de0d208bd242ed9c
800e81e671422bb7e5d92984aa11ab8b
03deb3c54743bace91057f1557ce8c94
492e40e2431d4edced23f99a455e92a9
01393d1b1f4cbaddb90aeecf49d6b709
051c693833b726dec7a7b42bf19720f4
791b8f0eb3893737346a2bd445c8ab2e
fba28ec2db97668044a9a6252e1fd470
2c121e1eb94510abbdb8804d9a8716db
204d183b82d2dd86ed496c38eebe05c4
d45a9d0b8e4900888b0331252f9fffa9
3c9dc2be17441bae31ceee3320d42f06
d726a117f0fbf1609cef55c0b477d71b
df37aa330350a5c4b86c795b78bffd75
8bee380334ccbf40574bb80c67c3787c
38763d081de05edafee6a5c33db982b3
22838a87052bce86b5cbe85ef1f8cd40
ca98bad313479576a0255ccb6ce49a72
fab6ac22fb0316945b27217605a999d2
168b9028ecb16ab60a2b57e170ded986
fbad8a5e8b4a369bf3d12a3aa199a7f6
749577a28ad8ad4c3d883d43ec8eb798
596a9defbeab05cfbc7a1cc9b3d7b7a1
3e17e5a89e0e6df53be295270c832a54
9004576e3de4eefe2d70d475363ee796
9e182339e942c7e1f73db6a44fd44c7f
70218396946b94e6f5a8441d0479c7e0
e741d835e79012e04331d0a31f95a422
484e993c73c95c1a6a193a28086642b3
68ac208abbf286e87df84ca7b9d60cd4
14739d8824951fc1ca89eb73bda8831a
eddd2f02477e3e861ff83b97b71e08e8
9f5c8d402b3be6730c13c5f17b24620c
f6bd1f794c9dfff6f9e00b18cb99ea1e
f01dcb2b66de6b446ebf84aa413947a5
738cf275465d102a313281e838f6b0b0
9439f55c5f907bdee19574265429e218
b4c9ebb9191db997ed9561f182f93bb4
884a5192125ee173a5328a87c8837159
3e85a61bf36947a44e1888cedf463096
596889d304c136d568cb3f9964c3b9bc
06fdb4744aa5fb0bc2fb44cf22e0fcb5
c7b6e714246dce75df5c15cc67343e0e
7b84efb0e2d0417080fde52b5a08c9dc
dd1038b8bccad622dac8e03209cf83b7
9ccb13595f96f451afd8f88c281c13d3
e084532af9da8ecac3543517adf1aa99
b83e607d077b5ca2f39548d6daea97e7
d4e56d4df7ffebc6d31e5b3506df2509
808305cc7994c3561946644a7ea2ca96
b9edb3fd24517234aaa18e9e235c0be1
20f6304fe94250d6dc1b81e3bc5ac863
ac7743a11518dd15d005b81618f9e15f
901d3088a17a1cd849d92709fdcf3634
f25dc3d2e425839d7450e32fc03a549c
634803358a3d45dc951241a9c4c4c2e4
34f4027faeda9c8ed063b8847044d3e5
9f0308e12d8b212b6315842b0486d642
39e39faf0f144cfb049d97d4ac645df1
381ecef032912e5e1e82739084e51ae1
248e2808f148116762d0eb057ac3b08c
f1e96fa0b8489fce4860e5ef5c78fdb2
3806b7d0ee0f4075b55d9f4bf0db523b
9fb6b4da166e16525d6a904f81ea04fc
ef136b49d391c208feec3aa3dbc82296
7e34bf652f6082a79952e86bcef4ca68
c70a85a55c435cd684c1b704626f9639
a366b4e51cedd39d6c9aa52e95ea9595
db364695e12cc7ad9998e8399575f4c4
182ef27a52502d6e3c466a1bb8feedd4
1b4bb4a3b464db8900e68416a9c33865
c808a8eb76657bf897fc8219738df456
e3cd3528db94fd7f8f6795bab5ffc087
ecafa9a3c58e79e08f84bc01b7c87aba
f6404b76f42525fc5d6469645534f2c7
a8643d17cfbebb219e7ff3badc84e4e2
5a407609572da2bb95b38ff5ebb59518
9a6452cdd8f1613c35292ff661a8e9c7
b2af23799d66801f22ce84c344f9f114
a51355ee2da26812874919997fe71cae
6eb1f98c11195ebbf57797664bd86188
7b9db6e5173d46fac22d3b31b0059f05
97a365137f686c00f656f3c3832b8dce
6aa8699d497ef02056963c3b260c96c5
860d0569294d668d1d7aac0449d98500
9c40d7159bb76298d56dcc4ad8aab51b
725b821e7d685823d6486073df9cd530
304fc6195091bae72ca50a00889d6186
0bce31d6e138a4fa78b481663dfe556f
85565b97a96746adf69e51ecfdac7390
82abc925f067d4bdc2cb753d31f56ba9
74d8bef9c383c7135a6a870412d192f4
b5e3fbd16dc4b8da0e44f1027ac4d725
e31bdb4702133ee8aa23b949866bd906
e24bed3269abe64909ed712014932c9c
2ce557d6174eba6bdeeb4c00423348a1
e01f4bbf7908203f94e106d0a57dc7db
ae8c24aeb1e04fc35b4cdf05a23a4060
76f3b8f2ef074ef27615ffc9d49650a8
c71911ca860d0678dd88277c24b6e224
be2b3ff1f42a90b86e224a604e869205
1ecb6a28afd6e6425a94f708160ed542
a59db7eb6712f19e69ffb9a4e446616e
7c5f6b243939c409f9c916509c503f90
38393c32eb4662aff5236a5c14642dc8
11059a9f365694edc8b7c106113e38d3
2504dc6d347cfc8e260b846314c7865f
8ce4e16abefdc04d0cfc1fae75c12586
1eaf32d36d3794042e39999424a85753
2cd4dbe3131125e5a5a7a24ada10b88e
901b128085f3c43359896ab8a2a26bdf
f2d9a692fe428343f87ed2b5619e73ce
0ab4dcf2f58902563976871e2f9e14dd
c0938de03c3f600884dd44730d57034b
2bbc49b39a153fee9b2d3b5598d71d82
40a50a342e72e5fafebcb571275b07fd
89ed6bac6ccdb50b4c0b61407e56c5db
363a4f533ceb1c281c71777c7a9909ad
045cc4aeff44f1dd742ce1c5047af149
5f2ad256b637506af41b8a332f6d5e32
67f7411d15be4e49fe4e38e0e25640f0
7ee83bd20cf68431f79c7746c1c5602b
d825332d04d16759a47b76a958d187f3
59daf37e55e09839656b4663ae60307e
bb935fcbbbe2666b66621dbd15c6bb81
418ee1f20ce7080c5944d9151aaf6373
a5754db923a5b500fb29b7d5314596b9
a939eaf1384c5b6edad11ba3088fbde9
1baf2914447c68a6ff91e4875c131200
0734006f8886f93c69632279f1563cab
0d0a4205cbeb9e6a0ef0730b694d2216
9a04f4a5592a3d7d25a55c8c6c9445d5
af95316db160725d66149b0e7e9a8503
a8928a093adc46cddd1ecaf633cdd088
42ed51d4a1dc67dda885d648b8102ec7
566237e6d60512c01d22bb89cd250f92
6091cb9c36f550e9f16da31383bf4d5c
e0739052271ad626594c17a80349d713
3ae8a9dda5caec2c8e2dff9cc0abcc0c
97766d1e2552f983dac563ddc9a786ed
ac7f528bcf72d1ff30de5678419a1c02
031c212379b0cc14aac42706280c876d
028c5eb51d211f6de6757fd87412fe57
e295c1f7acf27ebb12e97462a8c55e29
748c59d62dc8701c23c3e377ef311400
308ce255245d06487fb4eec08f5f8d5d
e4de8a8db93855d5783323b0cd7d7e70
3685ee3e211dcba29cf95efc0f935cdf
498c4444e46f064947a7f948c898a770
c70abd20410b6fdb532500251649a797
93167c3e7b8d2285da85c597fbecea05
a35aa56a9346d5ec8768bff72db451da
7cb10c2410d1690ca580a547be4a6838
10c46fbb9d261840ad832ad3c99b1b5e
51454f7e31f9c408850e8d3a3d9e38eb
80613737f467338a423a7234fb316725
28e8402b3fe54b324a4bcb95958a8eb8
d90d4a0825f11f3bb450928a04bb6512
ea11de04580d1831ac519087eaa8eb15
a5fb8beb796962d02eeb880063a3822e
626f82145e25270ca6ec8f31809c97f5
67d92a035ba284af7e788014917df36d
89b3e6a38179956a4d10070a5f25c91e
ccf801d9861d75da1b2425a557ac850e
ee276e07032ed8b0eae4a1fec1ac24f5
8cd5a0e54064b4600c40778f712777e4
b4ddedcc3e7b4fbf20f3639515d3fa9a
5a5c3bd635ae62ea5b5214f4177ed34d
204af63ed5ffcb44df686644877a1fa0
5f242989c8cc97f651619918e8e823e4
33e34bd6c41d76be5266fab571284644
176251e8752fd0c748c9f591a836a728
6694701285e1539f42f38f884de0ab59
d2289d7e0f7d9e15584b767aacc994df
3a3c17c6b6309afc44668453d30aefa4
7fe4d5eba9f3f872ab8b31f13711f397
5431d91eee66a6c1a3b99b2854a34697
2cd1c2f80658ce6e45e0f086b0c767bc
28f688e5a84926e6743bbf450c2bdb46
a83cba3cc88179142042a1c6286e37fc
29e40aa63c2a69c9a33555002a7fe5d8
96912e613da60640b78c9c46873d6634
887ff3b451522fb30ed0865fee4f9e98
6ce8732b0f2b42dbb9d29d29a78c158d
c1a3a5af9c529468c45281daefbdba53
94d909f762a50f5d9054e1ab06b7d955
4183460642f65079f089894e8f42de58
8456aa5149396cf811bdcedeebe64218
835aebc5393a6abebe5601cf18d6a9d6
2412ccf7fe735530d18ebf1b897f44e2
658d11e727d1f94279458cd9c8310d69
d92b795cd11003fa70706dec4ff5b8b5
cec3c5f1c3874fabff7ca1212fc540ef
f0b26e9eadf2330f40f25d1c2aab148e
53bf67778ac3b69ee0960dd60485cd9e
ac2ac994fbcdee634719dd630ee8f77c
b969d8d80ee7945fc4870e1f8381088c
555e3a18486dc4f8cc4afe2d94484520
f903aa1adf0c630c9df465d39f3c7ce7
c3840c8d88fc8c9683cfe8bd10f4c8cf
65288c0c0139af29d28a626e30ac457e
de91ca29633bd11e2faf76ace54bde63
841b214a566ff7652d1d1c0cb1c51209
f9a4f075e5977c618875f9b5a2a7834f
fbb3d7d784d8e6d8331963d2c918be6a
8c51e94c4d5e1859282a71605969ac80
0066fc75b3c66fb33e68e4fde045425d
fed10bd3a2e8389489f4287146d6af75
007ac4969db38bc58d686b4de942e8db
6597c139fb4ae5d7cac3695d3a902a81
bd0f9f1633d8549df117157f4cd9eb84
fba0d22b0f345069c8970fc738760912
5fdb32bbca7a5e2debf2176755697ffe
34f67dfb6fee751c5e8d16965620397c
c016d9048cd74a2b0f75ca9d8c5f6ac0
ee20818bf630539a8bfba40901fa4f76
7d661cc1a9273ebb111ea93277a9fa0f
4f7f644f33b0f60f0173c7c084a67fc0
b44635ddc435b163835bebeda63a2329
514cfce4fe7fce58c9e2add82f09d0a9
494e393a1168cac5dbfcd04328905e36
99ba79ac9d8dc0eafa843a8e4c6e1bae
881ec27ba72d7b5601e3b3a37c799e4c
f8a76ffd4c3e0b8c999d44ab790cd845
9f14e95188aec763ac5d430b90862f83
829c4a584a05c4f323e0961e4ca7a02c
3ab8dcc19ceddec17b3e74592f4c011e
27845374d38fa41708b3ee6217c8da19
2d6434e2d16f4ba12f6a32b41f731a3d
cdac1050c4230f211862e815f4249faa
a1e672b6a0e0b74e2a4514f50ea11074
d98d7312ae77c6a248053fd687484205
e4cabab93fcbcf37a3d2963c64a4aa69
585b9c5c69b2e2f99764a8f7471b8fc0
b50b67fe42ba862272d137811e70e908
6b3c0407593b6706f42287e9065278df
c6fe67f82d4cc9a1845a41416d363adc
6dd46e10c810d35e6f3225d7e6c96227
327c389605e03e4edda2626ccc10a469
72830391c7d8d2b2edebebecad0a2c03
e6e9f7758655a5ac2ed1644a08f5fc06
5a2183201aa86bab362436c457342da9
f1ef9fd094a3239ed93178482facb9b9
7bf8f4c06bced296f94b04c121084ff7
d7982bef7143f931bb6b50bb08fcec49
1a8c6cb5b5c152a19387155dc1fd5b1d
23855757e932f103d82225fcc9f13fb6
b464fc4a31507c224ebc7ef432662f12
61baa4e475f74aca32506079ca78f445
8bb65469fd6f2f8839c538f5cb09fd41
409e9dfc6d6ab6d96e2d89466594dc98
e2a1851bb3a76007b5aadf737a7ee076
0b08be32f305a38febc035be284d1a62
6c6c6c26e4c45d5e388de2c199e3bebd
7d5afa9504864b41f334e6605a47afc8
90690d124e686fc2ba19a91786ea41c2
3cfbe5fc564a4cf7a833157510664961
1a6a1dd95bebde4831b83833059b04b7
8b2b0dcec800f677d28092304127a3ca
8ec3f7f56b2b36d6ca1259f23eb2115f
18c765f360c565488176fe171fbd1e28
df641133c86d37469d8f50511153efe3
f0784022b054aafa6d4049db9a38973d
d68802275c2a9f548c1fa2a04dc51c53
e408e045c723cc7aa7569df237939daf
a78510fb24a2aeb83db8b171e9dac835
e81da57d52ab6e0d810135e84c3f7279
651abd9e3882041b943fbed86b85d437
45752e27f4da53bdb3a14cd7f73cbea5
32fabaca5e5eed9556ea4040d86041c9
5ee093608b6982f58c768056308dd712
34a497e7b11f72219a1698209e3f3261
df7cbefb55ddab90d60c3189d5fb9c70
b16d7803df2bd51d6c8f6a264086dc81
713117c98ca29685cff79278bbef8a29
d25fce913c5e7c0223845e6e2beec5f0
6e10d81c8e6027bb47e338b60f127d21
b27f32cc471f9116fd25d03550b80354
f0e37b28401d437e9cdd56562f504e2e
4a43b8ad9dbca003b1f34f7275cd1346
4795ebb8827f896584b4fdc627eab191
dd49d43a66e7d7832084a2c9156ccef6
797b8431c242ddbe228ca5b9ce2cc935
4981d0a4156ae84562a942b4da201a56
fdb6c9a84613525d0eada575e0db374e
82575fced877e131b8eebb6d0311ca26
f683ab159af59dd8e7b5af8016358741
6a35c4f3a8e9ad163c5316ac74c26efc
2805f5216ae00c21bfd9f7f711dc2481
9bf8be30afffc899eb31f2118af42768
f1081f90a4f77e6bc9e1225d17944dcc
bee4a84e377d24e1941225cf26ce4df8
61a12854b86d6e2a09a5f8e66ff83235
fe6ba2aa21b25559ca1ccae9b1e7fe41
d15d9951acfb99bf73f3beec83910784
2e7f0c7509fa0ca3978fe58ef177d239
4564b9705b3ef0bbdf9b184e59538684
b84884a127ee0dc0c789711a311f1ff3
fb26f893874354ccf6f2d152fba874c1
b1d030ccfcb5a4d7622d9977559aac17
b6875811bdfb3ed925139b26ef98f1c9
942aea07cea11257eb60b32ef3ec76bc
e25c632914719e4fc870785c8bdc6837
83205339f5d67367d2eccd1dae01f7f6
521910df5ff2bc42eff992ab1a4d5dcf
905183df3aab1ee19a7505d904d928f3
1de3bf5b76f3a4009a859413368d26f1
29ae9e5941e16693b035a8842f18fea7
8f00e4e9a1aca23bf389bccb29a3801c
c235c0867fbe3bffea04dc7ed776aa21
7322b5f07d70d40b27d3cdc8727f709a
a2e80ebe153204d4fe8637fcd544ceff
acecbe4ef3c46a4258e0a1d5e2f7e982
7d7edfee132aa07b75d0c603f9246d59
08a6aad8867b7a0b2aeb71d1fdcb8c1f
55f351552dec1891dc5e82e3b01c0df1
e13dbe50bae0dc8cbacd145056cbb235
68b2b0361ba95c41dbc2a0a7ab98206c
1ac280da383dd4562c56fad57bf28410
3b1935610fd3cbb8db122363ac28e1f3
c0cd784fe5f1afb1a6ba71269e2bfadf
106c964aa301a941cc716630936e4b3e
f84dea49502db9fe70d6505650ee2fe5
67a132bb07c7a1bc51525a33726ea24b
c30210145887095d857372ac54e41e6d
52007e9c4418dbb02a140419d84d74e2
e53043fcc8266b655e337465406794c1
4f3613c9c57d8a94e184aff742d78317
1930327a3bc05fe462e65da842447d08
5cd2a041fb7058eb38f93d8a18e64b6d
acaa9bd31eb0d82eaff4db23a5a894d9
1bc4c3db5ad472d02acadbe9703614f1
9508bb3cfd27519fac9b8605a2b0bdbc
e09fd7e8c7bd35a683315334c9c5550d
ca60a4205fb27e693182e0b5a03a8a0d
3cba45872937032b9b47e9c09b2523ed
f9ff28169f4163ffd91d172b42a33c60
f009e0671b96f41cc400048f1cc5eb0e
9279d311e863a419926f0508bb3b3d29
86880726f452c42f0d493e48b16114a7
ff49ad00cf243283b2cf82cb33ea1eb4
7598d737eae92c110ae3c59f5eceead7
4b6b0bee9f4e8f82f39952ff4cbb087e
5ffecc31eee0d64f29fbeafbf85a3709
e5af5b6a531c62ca579d838038ab9178
4688cf793b1ab2753a7b62e8eec02001
682e63665fbc430fb2428336ef5234ce
02158b75124e4fe54a463b536ee11c3f
d091757b29b5dfb385bbff94d7ee7fc2
48f6266ae64cbc3e21f594769882f5e2
d05d6d4f74dc060f14cb9238ee8799f6
01f28a8a21729926b6aabaef33a3a2a6
5baeaa1e11c93c29a42b8439a7fdd143
f7c218e3d1f74d4fc8bd1cdbddf972f3
751842c955c68086087f5cf5cdd57e50
c9676f78fd58a844e2899dcc15c930d2
5078a8078bcb4b4bb54dba8d974af9f6
10019daffef2e3def941c1463479138e
d43cda54e741ef0214d1b76d15c21929
abcdb213d03a0b7eaa1b5401f69af449
983aa7c2ca2065a3df320af0259a5b42
f7546b4ffc7482a5a53c16fa839329d8
4eee8ef788e7388ed8931ba982153a60
09f0cee00882a51e99838a871c77bda8
c64430cad2fdb17acbd5f1562592abab
4493fe4cef403c5cb824635d8ca8e048
23c61a5c4d89d42a884faea4a5a0cc9b
d6863f4c20f5d3ffed34d59e0ba3b7ed
90e0e8c67706c372d757f6d372d9f312
23e69741c6ffa9421aba0b840398fdac
c6f5683de21c8bfe79dfd77c7a1f9e98
1d8b04fbb19d121e3ba119c46f803bc3
1b32ecef7b3b9bdf7ff9bf739ac163a4
ed8dfe67911f7cd8c676beba36ed14f5
c7c3cedb577ae2b9f20ad70083eca936
43ebbbdfb4d6863fda4986a34a6f7e1f
99f38ef684b8e10ae4b0568edc6d4b59
279ebb9944af1adfed52672f353636e8
1b15345622cfea3c41615ea7526f5b49
c80790f8cbb4fbd2b80f876b39f735cd
b07ed2fb3da143c1f904f7a10469590d
b40118a3e208aa97ab5518cd623b9fd9
1f26cf680296790a3279d4a91dec1791
811096cc0f0ac040ae08f322ed191984
6af86f60bc64b0a2b1f3dd0c9f7ef998
99700d7eafc3d8cee525dfc65f78c136
97ab9fd7ef3197eae3ec100cf2351b10
30c974ae530e242c195365fae31fafbb
dcf9d1dc7d53352c94e242c2f9c2c866
52cb39213e58f9531129351475ed16c1
fedd5ad5f50b28de63dbe388b32fa157
ace8a0f153b95daf0aef6c3145f66968
71c0969025aceb52683cf892562f0eb1
be35a366cfd42e7da418454d1c56e3e6
29b3ffd24c2578d4bf651e9baaae5575
cc8b5d6da1c0335ee7b03f631c4c6ed2
a92fcc937557cede3dd597a59aef6b95
30de2a04afd07b7d3e61da3b2b1cf001
988e3bbde11f5770c20c2dde90d3bcd1
c6313f304ada33847106c94ad033c854
d6e44a5849cce8927b33a070d4b13742
08069e777e04da7fb4326b90bf1da587
e0214617ea0ec05db8356a111412fcde
072e059bd32fe29d244b12d573acd97d
6234cadabe84a776d2f4ca3ee6b0d869
ae8c782ed5c530f1a2b8305be8bb74bb
239846cbb1fb9ff2351af7aa041a2a0a
8186d693e60a3ba068b12776b2b44456
d54a66d31632c5d9ea3411a45815fc20
b646fce11803da8aad2f923fff69435b
2be1ed53251d866bcd115f9c93bceae1
936a5fbc0c8fbeedaed7a7ae26dc56a1
1b87f82fb4aac73a11c69286b2f72566
bf40688eb47e2390e5856cae5ffc26ca
9b89fd0f83d71ceb3d8fca6abf40a227
d7426cdaa13c0039b857dca459c94456
5df028521f79a0e1cba2ba88b3ee038e
